{"page":1,"total_results":192,"total_pages":10,"results":[{"vote_count":66,"id":11483,"video":false,"vote_average":6.3,"title":"Pirates","popularity":3.973,"poster_path":"\/2NljKDHFCjBATferrMmvWmrWMtj.jpg","original_language":"en","original_title":"Pirates","genre_ids":[12,35],"backdrop_path":"\/jQMlDLS5rwjvUEBnzQbs9n74GB9.jpg","adult":false,"overview":"Captain Red runs a hardy pirate ship with the able assistance of Frog, a dashing young French sailor. One day Capt. Red is captured and taken aboard a Spanish galleon, but thanks to his inventiveness, he raises the crew to mutiny, takes over the ship, and kidnaps the niece of the governor of Maracaibo. The question is, can he keep this pace up?","release_date":"1986-05-08"},{"vote_count":6741,"id":1865,"video":false,"vote_average":6.4,"title":"Pirates of the Caribbean: On Stranger Tides","popularity":27.451,"poster_path":"\/wNUDAq5OUMOtxMlz64YaCp7gZma.jpg","original_language":"en","original_title":"Pirates of the Caribbean: On Stranger Tides","genre_ids":[12,28,14],"backdrop_path":"\/l7zANdjgTvYqwZUx76Vk0EKpCH5.jpg","adult":false,"overview":"Captain Jack Sparrow crosses paths with a woman from his past, and he's not sure if it's love -- or if she's a ruthless con artist who's using him to find the fabled Fountain of Youth. When she forces him aboard the Queen Anne's Revenge, the ship of the formidable pirate Blackbeard, Jack finds himself on an unexpected adventure in which he doesn't know who to fear more: Blackbeard or the woman from his past.","release_date":"2011-05-14"},{"vote_count":9624,"id":22,"video":false,"vote_average":7.6,"title":"Pirates of the Caribbean: The Curse of the Black Pearl","popularity":43.931,"poster_path":"\/tkt9xR1kNX5R9rCebASKck44si2.jpg","original_language":"en","original_title":"Pirates of the Caribbean: The Curse of the Black Pearl","genre_ids":[12,14,28],"backdrop_path":"\/8AUQ7YlJJA9C8kWk8P4YNHIcFDE.jpg","adult":false,"overview":"Jack Sparrow, a freewheeling 17th-century pirate, quarrels with a rival pirate bent on pillaging Port Royal. When the governor's daughter is kidnapped, Sparrow decides to help the girl's love save her.","release_date":"2003-07-09"},{"vote_count":6433,"id":285,"video":false,"vote_average":7,"title":"Pirates of the Caribbean: At World's End","popularity":33.296,"poster_path":"\/bXb00CkHqx7TPchTGG131sWV59y.jpg","original_language":"en","original_title":"Pirates of the Caribbean: At World's End","genre_ids":[12,14,28],"backdrop_path":"\/EDloimImeTz1rFM7YIJ5Dw1mzU.jpg","adult":false,"overview":"Captain Barbossa, long believed to be dead, has come back to life and is headed to the edge of the Earth with Will Turner and Elizabeth Swann. But nothing is quite as it seems.","release_date":"2007-05-19"},{"vote_count":220,"id":3293,"video":false,"vote_average":7.1,"title":"Pirates of Silicon Valley","popularity":6.781,"poster_path":"\/62NXimypwBEiu9IS2Z6R5OI5Ncu.jpg","original_language":"en","original_title":"Pirates of Silicon Valley","genre_ids":[18],"backdrop_path":"\/zKJ5KT4yLoIg2P3xrcs6yLAO6Zi.jpg","adult":false,"overview":"This film is the semi-humorous documentary about the men who made the world of technology what it is today, their struggles during college, the founding of their companies, and the ingenious actions they took to build up the global corporate empires of Apple Computer Inc. and Microsoft Corporation.","release_date":"1999-05-10"},{"vote_count":7278,"id":58,"video":false,"vote_average":7.1,"title":"Pirates of the Caribbean: Dead Man's Chest","popularity":30.341,"poster_path":"\/waFr5RVKaQ9dzOt3nQuIVB1FiPu.jpg","original_language":"en","original_title":"Pirates of the Caribbean: Dead Man's Chest","genre_ids":[12,14,28],"backdrop_path":"\/yD3gXOtGmXnbJBPLgqluZU2QF5c.jpg","adult":false,"overview":"Captain Jack Sparrow works his way out of a blood debt with the ghostly Davey Jones, he also attempts to avoid eternal damnation.","release_date":"2006-06-20"},{"vote_count":5084,"id":166426,"video":false,"vote_average":6.5,"title":"Pirates of the Caribbean: Dead Men Tell No Tales","popularity":33.117,"poster_path":"\/xbpSDU3p7YUGlu9Mr6Egg2Vweto.jpg","original_language":"en","original_title":"Pirates of the Caribbean: Dead Men Tell No Tales","genre_ids":[12,28,14,35],"backdrop_path":"\/7C921eWK06n12c1miRXnYoEu5Yv.jpg","adult":false,"overview":"Thrust into an all-new adventure, a down-on-his-luck Capt. Jack Sparrow feels the winds of ill-fortune blowing even more strongly when deadly ghost sailors led by his old nemesis, the evil Capt. Salazar, escape from the Devil's Triangle. Jack's only hope of survival lies in seeking out the legendary Trident of Poseidon, but to find it, he must forge an uneasy alliance with a brilliant and beautiful astronomer and a headstrong young man in the British navy.","release_date":"2017-05-23"},{"vote_count":40,"id":394537,"video":false,"vote_average":6.9,"title":"The Pirates of Somalia","popularity":6.278,"poster_path":"\/a8dlDPwo9mnorurL6ukIpyHZZd7.jpg","original_language":"en","original_title":"The Pirates of Somalia","genre_ids":[18],"backdrop_path":"\/iUH1dWoIR1eoE6sEzwhH49T0sE0.jpg","adult":false,"overview":"After an inspiring chance encounter with his idol, rookie journalist Jay Bahadur uproots his life and moves to Somalia looking for the story of a lifetime. Hooking up with a local fixer, he attempts to get embedded with the local Somali pirates, only to quickly find himself in over his head.","release_date":"2017-12-08"},{"vote_count":49,"id":285213,"video":false,"vote_average":6.7,"title":"The Pirates","popularity":3.8,"poster_path":"\/ci3CCTVLYCKWTluMShJWHl6E7tw.jpg","original_language":"ko","original_title":"해적: 바다로 간 산적","genre_ids":[28,36,12],"backdrop_path":"\/h2MLv3EeSXar0J7upxHAzZMvO9P.jpg","adult":false,"overview":"On the eve of the founding of the Joseon Dynasty, a whale swallows the Emperor's Seal of State being brought to Joseon by envoys from China. With a big reward on whoever brings back the royal seal, mountain bandits led by Jang Sa-jung go out to sea to hunt down the whale. But he soon clashes with Yeo-wol, a female captain of pirates, and unexpected adventure unfolds.","release_date":"2014-08-06"},{"vote_count":465,"id":72197,"video":false,"vote_average":6.4,"title":"The Pirates! In an Adventure with Scientists!","popularity":7.956,"poster_path":"\/w5NquAU73QRayUB4ZfF6F6eyY2e.jpg","original_language":"en","original_title":"The Pirates! In an Adventure with Scientists!","genre_ids":[16,12,10751,35],"backdrop_path":"\/yJT2JCdjtuH5K202bC4YL0wOYD2.jpg","adult":false,"overview":"The luxuriantly bearded Pirate Captain is a boundlessly enthusiastic, if somewhat less-than-successful, terror of the High Seas. With a rag-tag crew at his side, and seemingly blind to the impossible odds stacked against him, the Captain has one dream: to beat his bitter rivals Black Bellamy and Cutlass Liz to the much coveted Pirate of the Year Award. It’s a quest that takes our heroes from the shores of exotic Blood Island to the foggy streets of Victorian London. Along the way they battle a diabolical queen and team up with a haplessly smitten young scientist, but never lose sight of what a pirate loves best: adventure!","release_date":"2012-03-12"},{"vote_count":59,"id":10179,"video":false,"vote_average":5.9,"title":"The Ice Pirates","popularity":3.15,"poster_path":"\/wDnPJkkBDLqnwZKkPZoWptgOz9U.jpg","original_language":"en","original_title":"The Ice Pirates","genre_ids":[28,878,35],"backdrop_path":"\/dvvitNm9sld8n0hrsAuj5gyycEF.jpg","adult":false,"overview":"The time is the distant future, where by far the most precious commodity in the galaxy is water. The last surviving water planet was somehow removed to the unreachable centre of the galaxy at the end of the galactic trade wars. The galaxy is ruled by an evil emperor (John Carradine) presiding over a trade oligarchy that controls all mining and sale of ice from asteroids and comets.","release_date":"1984-03-16"},{"vote_count":16,"id":71805,"video":false,"vote_average":6.1,"title":"Shipwrecked","popularity":26.902,"poster_path":"\/jf2PkR0Yt0ZRMKqtJzwja7JV2Hk.jpg","original_language":"no","original_title":"Håkon Håkonsen","genre_ids":[12,10751],"backdrop_path":"\/rp5dh6D0MLOIIVHkugv6Z8gBLwg.jpg","adult":false,"overview":"A young Norwegian boy in 1850s England goes to work as a cabin boy and discovers some of his shipmates are actually pirates.","release_date":"1990-10-03"},{"vote_count":0,"id":534238,"video":false,"vote_average":0,"title":"Seuls les pirates","popularity":2.8,"poster_path":"\/yKpZo1dggzfwomRwVxT2nxbfMKT.jpg","original_language":"fr","original_title":"Seuls les pirates","genre_ids":[],"backdrop_path":null,"adult":false,"overview":"","release_date":"2018-07-13"},{"vote_count":40,"id":13355,"video":false,"vote_average":6.8,"title":"Scooby-Doo! Pirates Ahoy!","popularity":3.646,"poster_path":"\/tTnXOstlUMpKHSoirKI6jRMTLcP.jpg","original_language":"en","original_title":"Scooby-Doo! Pirates Ahoy!","genre_ids":[14,16,35,10751,9648,12],"backdrop_path":"\/lDe8q8A3F6c2p1WbyfOUzTtoVSw.jpg","adult":false,"overview":"Ghost pirates attack the cruise ship that Scooby and the gang are vacationing on.","release_date":"2006-01-01"},{"vote_count":18,"id":50717,"video":false,"vote_average":6.3,"title":"Davy Crockett and the River Pirates","popularity":3.578,"poster_path":"\/obMOXFtwiySiaQhWZZgE3UWsygB.jpg","original_language":"en","original_title":"Davy Crockett and the River Pirates","genre_ids":[35,28,12,10751],"backdrop_path":"\/cVlhqqPsOCTv6ghPCAHAWUpoZTQ.jpg","adult":false,"overview":"Davy Crockett and his sidekick Georgie compete against boastful Mike Fink (\"King of the River\") in a boat race to New Orleans. Later, Davy and Georgie, allied with Fink, battle a group of river pirates trying to pass themselves off as Native Americans. Written by Ken Miller","release_date":"1956-07-18"},{"vote_count":33,"id":15511,"video":false,"vote_average":5.7,"title":"VeggieTales: The Pirates Who Don't Do Anything","popularity":3.715,"poster_path":"\/rUL49c79aaoNjOMk9AqZtxmWaqg.jpg","original_language":"en","original_title":"VeggieTales: The Pirates Who Don't Do Anything","genre_ids":[12,16,35,878,10751],"backdrop_path":"\/h9QCJCmb7NgB1vJjNEOXUBasTfo.jpg","adult":false,"overview":"Set Sail For Adventure! A boatload of beloved VeggieTales pals embark on a fun and fresh pirate adventure with their trademark humor and silly songs in The Pirates Who Don't Do Anything - A VeggieTales Movie! Larry the Cucumber, Mr. Lunt and Pa Grape find themselves on the ride of their lives when they are mysteriously whisked back to the time when pirates ruled the high seas.","release_date":"2008-01-11"},{"vote_count":6,"id":25043,"video":false,"vote_average":1.8,"title":"Pirates of Treasure Island","popularity":1.664,"poster_path":"\/rKo9fDj7ihq3Kvqo1S7ctYod8Re.jpg","original_language":"en","original_title":"Pirates of Treasure Island","genre_ids":[12,28,35,53],"backdrop_path":"\/3Lp8xAPWVA65xbTiJhHbMAAqPsQ.jpg","adult":false,"overview":"Starting as a prequel to the novel \"Treasure Island\", we see the infamous pirate treasure buried by Billy Bones and Long John Silver","release_date":"2006-06-27"},{"vote_count":183,"id":1408,"video":false,"vote_average":5.7,"title":"Cutthroat Island","popularity":6.109,"poster_path":"\/odM9973kIv9hcjfHPp6g6BlyTIJ.jpg","original_language":"en","original_title":"Cutthroat Island","genre_ids":[28,12],"backdrop_path":"\/qzH1yszhgTlT64tS24yBDPGaeHq.jpg","adult":false,"overview":"Morgan Adams and her slave, William Shaw, are on a quest to recover the three portions of a treasure map. Unfortunately, the final portion is held by her murderous uncle, Dawg. Her crew is skeptical of her leadership abilities, so she must complete her quest before they mutiny against her. This is made yet more difficult by the efforts of the British crown to end her pirate raids.","release_date":"1995-12-22"},{"vote_count":8,"id":15716,"video":false,"vote_average":5.8,"title":"The Pirates of Penzance","popularity":1.166,"poster_path":"\/f2bvgBjzvTXU3qA1EWFhcNRb6Xv.jpg","original_language":"en","original_title":"The Pirates of Penzance","genre_ids":[35,10402,10749],"backdrop_path":"\/cdcIYXytxuWdheElcEbF91UH851.jpg","adult":false,"overview":"In spite of being apprenticed to a Pirate King as a child, Frederic has led a very sheltered life. So when he arrives in Penzance with his boisterous shipmates, there are a few surprises in store for him! It all ends happily, but not before he's dodged the Old Bill, fallen in love and made some rather inconvenient discoveries.","release_date":"1983-02-18"},{"vote_count":12,"id":68757,"video":false,"vote_average":7.8,"title":"City of Pirates","popularity":0.968,"poster_path":"\/wPBGVsccnlzMXaljxrhuq6pyD3H.jpg","original_language":"fr","original_title":"La Ville des pirates","genre_ids":[18,14,27],"backdrop_path":"\/yXRIookmLEGwTEUNVxvb6DH15yl.jpg","adult":false,"overview":"A surreal odyssey in which a melancholic maidservant crosses paths with a homicidal little boy, travels to a tiny island of pirates and encounters a man with multiple personalities.","release_date":"1984-02-22"}]}